{
"alice":
    {
        "gender":"female",
        "age":   "20-24",
        "body": "slim"
    },
"amy":
    {
        "gender":"female",
        "age":   "30-34",
        "body": "average"
    },
"bob":
    {
        "gender":"male",
        "age":   "25-29",
        "body": "athletic"
    },
"ben":
    {
        "gender":"male",
        "age":   "30-34",
        "body": "average"
    }
}
